{
	"goal": {
		"manifest_url": "",
		"manifest_url.auth": ""
	},
	"installed": {
		"build.variant": "userdebug",
		"build.id": "2.0.0",
		"build.number": "105",
		"build.product": "bzt232hub01",
		"build.device": "rk3288",
		"build.model": "BZT-S101",
		"build.date": "Thu Nov  1 13:09:34 PDT 2018",
		"build.flavor": "bzt232hub01-userdebug",
		"build.data.utc": "1541102974"
	},
	"target": {
		"board.hardware": "rk30board",
		"board.platform": "rk3288",
		"build.id": "2.0.0",
		"build.number": "105",
		"build.product": "bzt232hub01",
		"build.device": "rk3288",
		"build.model": "BZT-S101",
		"build.variant": "userdebug",
		"build.tag": "2.0.0-105-userdebug",
		"gzip.name": "bzt232hub01-rkimage-2.0.0-105-userdebug.img.gzip",
		"gzip.sha256": "1beb04fdc249805f60f4e6b7bb5d481e1baa4d7f1dc95d26f270b17dde15d830",
		"gzip.md5": "babdb91e620e02164ed1ce87d3b35822",
		"gzip.size": 355634724,
		"img.sha256": "ae372cce57e9cd572f7f25918cd081d8cec2b02335338927667471f73c842c6b",
		"img.md5": "68db2a30ffd66e2fcc2801831e8bea89",
		"img.size": 850422232,
		"img.name": "bzt232hub01-rkimage-2.0.0-105-userdebug.img",
		"url": "https:\/\/nexus.buzztime.com\/repository\/firmware\/bzt232hub01-rkimage-2.0.0-105-userdebug.img.gzip"
	},
	"manifest": {
		"manifestUrl": "https:\/\/nexus.buzztime.com\/repository\/firmware\/bzt232hub01-rkimage-2.0.0-105-userdebug.manifest.json",
		"manifestAuth": "auth:basic; name:MStevens; password:ntnMS_123"
	},
	"diff": {
		"build.id": 0,
		"build.number": 0,
		"build.model": 0,
		"build.product": 0,
		"build.variant": 0
	},
	"stage": {
		"gzip.digest.match": 0,
		"img.digest.match": 0,
		"update": "ready"
	},
	"download": {
		"downloadId": 157,
		"status": 8,
		"uri": "https:\/\/nexus.buzztime.com\/repository\/firmware\/bzt232hub01-rkimage-2.0.0-105-userdebug.img.gzip",
		"_id": 157,
		"description": "bzt232hub01-rkimage-2.0.0-105-userdebug.img.gzip",
		"bytes_so_far": 355634724,
		"total_size": 355634724,
		"last_modified_timestamp": 1544061797254,
		"reason": "placeholder"
	}
}